{
	"info": {
		"_postman_id": "3dd6c9b0-f2c2-4805-9d29-966fa69cbf3e",
		"name": "automation",
		"schema": "https://schema.getpostman.com/json/collection/v2.1.0/collection.json",
		"_exporter_id": "16143699"
	},
	"item": [
		{
			"name": "https://mediareport.id/service_mediamonitoring/fact-news-company/",
			"request": {
				"method": "GET",
				"header": [
					{
						"key": "Authorization",
						"value": "Bearer eyJhbGciOiJIUzI1NiIsInR5cCI6ImFjY2VzcyJ9.eyJpYXQiOjE2NzQwNTc4MzcsImV4cCI6MTY3NDE0NDIzNywiYXVkIjoiaHR0cHM6Ly9zaWx2ZXJhcnJvdy5pZCIsImlzcyI6InNpbHZlcmFycm93Iiwic3ViIjoiMTEiLCJqdGkiOiI4MzIyOWNkNC1kMjAyLTRiOWYtODAxNC1lODc3YWMxNjc2NjAifQ.sC7IwRyBPAP_WxmAaYlkuAcjvipzZ9EJEzVYd8HZe3k"
					}
				],
				"url": {
					"raw": "https://mediareport.id/service_mediamonitoring/fact-news-company/594?periode_type=year&periode_date=2021&id=594",
					"protocol": "https",
					"host": [
						"mediareport",
						"id"
					],
					"path": [
						"service_mediamonitoring",
						"fact-news-company",
						"594"
					],
					"query": [
						{
							"key": "periode_type",
							"value": "year"
						},
						{
							"key": "periode_date",
							"value": "2021"
						},
						{
							"key": "id",
							"value": "594"
						}
					]
				}
			},
			"response": []
		}
	]
}